<svg xmlns="http://www.w3.org/2000/svg" width="28.422" height="34" viewBox="0 0 28.422 34">
  <g id="paper_2_" data-name="paper (2)" transform="translate(-42)">
    <path id="Path_2139" data-name="Path 2139" d="M70.422,5.546,64.876,0h-16.5V20.465a6.773,6.773,0,1,0,6.3,10.082H70.422ZM65.109,1.36l3.952,3.952H65.109ZM45.248,32.049a3.853,3.853,0,0,1,7.051,0,5.963,5.963,0,0,1-7.051,0Zm1.8-4.823a1.727,1.727,0,1,1,1.727,1.727A1.729,1.729,0,0,1,47.047,27.227Zm5.883,4.291a4.635,4.635,0,0,0-2.608-2.3,2.523,2.523,0,1,0-3.1,0,4.634,4.634,0,0,0-2.608,2.3,5.977,5.977,0,1,1,8.312,0Zm2.13-1.767a6.773,6.773,0,0,0-5.887-9.285V.8H64.312V6.109h5.313V29.75Z" fill="#051db9"/>
    <path id="Path_2140" data-name="Path 2140" d="M192,64h10.625v.8H192Z" transform="translate(-140.039 -59.75)" fill="#051db9"/>
    <path id="Path_2141" data-name="Path 2141" d="M192,96h8.5v.8H192Z" transform="translate(-140.039 -89.625)" fill="#051db9"/>
    <path id="Path_2142" data-name="Path 2142" d="M186,146.922h2.922V144H186Zm.8-2.125h1.328v1.328H186.8Z" transform="translate(-134.438 -134.438)" fill="#051db9"/>
    <path id="Path_2143" data-name="Path 2143" d="M256,176h8.5v.8H256Z" transform="translate(-199.789 -164.313)" fill="#051db9"/>
    <path id="Path_2144" data-name="Path 2144" d="M256,144h10.625v.8H256Z" transform="translate(-199.789 -134.438)" fill="#051db9"/>
    <path id="Path_2145" data-name="Path 2145" d="M186,226.922h2.922V224H186Zm.8-2.125h1.328v1.328H186.8Z" transform="translate(-134.438 -209.125)" fill="#051db9"/>
    <path id="Path_2146" data-name="Path 2146" d="M256,256h8.5v.8H256Z" transform="translate(-199.789 -239)" fill="#051db9"/>
    <path id="Path_2147" data-name="Path 2147" d="M256,224h10.625v.8H256Z" transform="translate(-199.789 -209.125)" fill="#051db9"/>
    <path id="Path_2148" data-name="Path 2148" d="M256,336h8.5v.8H256Z" transform="translate(-199.789 -313.688)" fill="#051db9"/>
    <path id="Path_2149" data-name="Path 2149" d="M256,304h10.625v.8H256Z" transform="translate(-199.789 -283.813)" fill="#051db9"/>
  </g>
</svg>
