<svg xmlns="http://www.w3.org/2000/svg" width="29.037" height="29" viewBox="0 0 29.037 29">
  <g id="contract_1_" data-name="contract (1)" transform="translate(0 -0.322)">
    <path id="Path_2107" data-name="Path 2107" d="M21.162,1.445,4.407.324a.994.994,0,0,0-1.056.924l-.131,1.96H.992A.994.994,0,0,0,0,4.2V28.33a.994.994,0,0,0,.992.992H13.817a.43.43,0,0,0,.3-.124l1.936-1.927a.423.423,0,0,0,.06.009l3.305.221a1.017,1.017,0,0,0,1.056-.924L22.086,2.5a1,1,0,0,0-.924-1.057ZM14.243,27.867V24.913a.142.142,0,0,1,.142-.142h2.943Zm5.384-1.347a.142.142,0,0,1-.151.132l-2.625-.176,1.8-1.793a.425.425,0,0,0,.125-.3V4.2a.994.994,0,0,0-.992-.992H13.362a.426.426,0,0,0,0,.851h4.423a.142.142,0,0,1,.142.142V23.92H14.385a.994.994,0,0,0-.992.992v3.559H.992a.142.142,0,0,1-.142-.142V4.2a.142.142,0,0,1,.142-.142H11.1a.426.426,0,0,0,0-.851H4.072l.127-1.9a.142.142,0,0,1,.151-.132L21.105,2.294a.142.142,0,0,1,.132.151Z" fill="#051db9"/>
    <path id="Path_2108" data-name="Path 2108" d="M67.8,237.047H56.2a.425.425,0,1,0,0,.851H67.8a.425.425,0,1,0,0-.851Z" transform="translate(-52.611 -223.3)" fill="#051db9"/>
    <path id="Path_2109" data-name="Path 2109" d="M67.8,289.332H56.2a.425.425,0,1,0,0,.851H67.8a.425.425,0,1,0,0-.851Z" transform="translate(-52.611 -272.619)" fill="#051db9"/>
    <path id="Path_2110" data-name="Path 2110" d="M55.774,185.187a.425.425,0,0,0,.425.425H67.8a.425.425,0,1,0,0-.851H56.2A.425.425,0,0,0,55.774,185.187Z" transform="translate(-52.611 -173.98)" fill="#051db9"/>
    <path id="Path_2111" data-name="Path 2111" d="M91.807,132.9a.425.425,0,0,0,.425.425h7.514a.425.425,0,0,0,0-.851H92.232A.425.425,0,0,0,91.807,132.9Z" transform="translate(-86.6 -124.66)" fill="#051db9"/>
    <path id="Path_2112" data-name="Path 2112" d="M61.38,389.815l-2.295,0h-.771c-.466,0-.78-.093-.884-.606-.088-.433-.7-.375-.82,0-.294.926-.781.563-1.054-.06a8.725,8.725,0,0,1-.461-1.979c-.087-.486-.823-.35-.835.113a7.926,7.926,0,0,1-.229,1.8,14.452,14.452,0,0,1-.636,1.779c-.207.508.616.727.82.226a16.426,16.426,0,0,0,.578-1.572c.291.7.895,1.494,1.754,1.027a1.714,1.714,0,0,0,.44-.355,2.079,2.079,0,0,0,1.734.475l2.659-.005A.426.426,0,0,0,61.38,389.815Z" transform="translate(-50.335 -364.627)" fill="#051db9"/>
    <path id="Path_2113" data-name="Path 2113" d="M405.594,178.618a1.224,1.224,0,0,0-.833-.341l-.321,0v-.608a1.178,1.178,0,0,0-.535-.956v-.856a1.373,1.373,0,0,0-2.743.008v.856a1.124,1.124,0,0,0-.536.956v.623a1.174,1.174,0,0,0,0,2.338c.009,1.9.009,3.777,0,5.713a.426.426,0,0,0,.851,0c.01-1.938.011-3.812,0-5.718l2.11-.01s0,6.286,0,9.118a1.055,1.055,0,0,1-2.111-.014v-.776a.426.426,0,0,0-.849-.051v.728a2.089,2.089,0,0,0,.566,1.524,3.557,3.557,0,0,0,1.042,2.379.451.451,0,0,0,.609-.01,3.508,3.508,0,0,0,1.03-2.405,1.756,1.756,0,0,0,.562-1.525V185.72a1.192,1.192,0,0,0,1.5-1.131v-5.142a1.16,1.16,0,0,0-.344-.828Zm-4.119-.325v-.615a.273.273,0,0,1,.2-.263l1.7-.008a.268.268,0,0,1,.208.263v.612Zm1.059-2.949a.554.554,0,0,1,.519.514v.69l-1.042.005v-.687A.525.525,0,0,1,402.534,175.345Zm0,17.235a2.713,2.713,0,0,1-.421-.93,1.849,1.849,0,0,0,.843-.011A2.653,2.653,0,0,1,402.534,192.58Zm2.554-7.991a.325.325,0,0,1-.649.007s0-4.025,0-4.394a.429.429,0,0,0-.429-.426l-3.311.016a.323.323,0,0,1,0-.645l4.061-.02a.319.319,0,0,1,.323.319v5.142Z" transform="translate(-376.901 -164.339)" fill="#051db9"/>
  </g>
</svg>
