<svg xmlns="http://www.w3.org/2000/svg" width="40.171" height="34.365" viewBox="0 0 40.171 34.365">
  <g id="school" transform="translate(0 -37)">
    <g id="Group_105" data-name="Group 105" transform="translate(0 37)">
      <path id="Path_2171" data-name="Path 2171" d="M38.484,66.265H37.306a2.144,2.144,0,0,0,.237-.982v-20.4a2.16,2.16,0,0,0-2.158-2.158H32.208v-.719A1.029,1.029,0,0,0,31.18,40.98h-.974V38.028a1.028,1.028,0,0,0-1.364-.971l-1.854.641a.588.588,0,0,0,.385,1.112l1.656-.573V52.389l-8.355,2.889V41.126L25,39.63a.588.588,0,0,0-.385-1.112l-4.53,1.566-8.756-3.028a1.028,1.028,0,0,0-1.364.971V40.98H8.991a1.029,1.029,0,0,0-1.028,1.028v.719H4.786a2.16,2.16,0,0,0-2.158,2.158v2.093a.588.588,0,1,0,1.177,0V44.885a.982.982,0,0,1,.981-.981H7.964v1.177H5.571a.589.589,0,0,0-.588.588V64.5a.588.588,0,0,0,.588.588H34.6a.588.588,0,0,0,.588-.588V45.669a.588.588,0,0,0-.588-.588H32.208V43.9h3.177a.982.982,0,0,1,.981.981v20.4a.982.982,0,0,1-.981.981H4.787a.982.982,0,0,1-.981-.981V49.5a.588.588,0,0,0-1.177,0V65.284a2.143,2.143,0,0,0,.237.981H1.687A1.689,1.689,0,0,0,0,67.952v1.726a1.689,1.689,0,0,0,1.687,1.687h23.4a.588.588,0,0,0,0-1.177H1.687a.511.511,0,0,1-.51-.51V67.952a.511.511,0,0,1,.51-.51H16.123v.413a1.471,1.471,0,0,0,1.47,1.47h4.985a1.471,1.471,0,0,0,1.47-1.47v-.413H38.484a.511.511,0,0,1,.51.51v1.726a.511.511,0,0,1-.51.51H27.651a.588.588,0,1,0,0,1.177H38.484a1.689,1.689,0,0,0,1.687-1.687V67.952a1.689,1.689,0,0,0-1.687-1.687Zm-8.97-12.8a1.029,1.029,0,0,0,.692-.971V42.157h.825V55.516H23.588ZM11.142,38.237,19.5,41.126V55.278l-8.355-2.889Zm-2,3.921h.825V52.5a1.029,1.029,0,0,0,.692.971l5.926,2.049H9.141Zm24.871,4.1V63.911H6.16V46.258h1.8v9.407a1.029,1.029,0,0,0,1.028,1.028H31.18a1.029,1.029,0,0,0,1.028-1.028V46.258Zm-11.14,21.6a.293.293,0,0,1-.293.293H17.593a.293.293,0,0,1-.293-.293v-.413h5.571Z" transform="translate(0 -37)" fill="#051db9"/>
      <path id="Path_2172" data-name="Path 2172" d="M166.036,309.387H150.577a.588.588,0,1,0,0,1.177h15.458a.588.588,0,1,0,0-1.177Z" transform="translate(-138.221 -288.016)" fill="#051db9"/>
      <path id="Path_2173" data-name="Path 2173" d="M160.6,341.2H150.577a.588.588,0,1,0,0,1.177H160.6a.588.588,0,1,0,0-1.177Z" transform="translate(-138.221 -317.334)" fill="#051db9"/>
    </g>
  </g>
</svg>
