<svg id="register" xmlns="http://www.w3.org/2000/svg" width="33.318" height="33.322" viewBox="0 0 33.318 33.322">
  <path id="Path_2117" data-name="Path 2117" d="M19.767,18.693a.7.7,0,0,1-.492-.2l-2.945-2.945a.694.694,0,1,0-.982.982.694.694,0,0,1-.982.982,2.082,2.082,0,1,1,2.945-2.945l2.946,2.945a.694.694,0,0,1-.492,1.184Z" transform="translate(5.345 5.422)" fill="#051db9"/>
  <path id="Path_2118" data-name="Path 2118" d="M16.978,17a.7.7,0,0,1-.492-.2,2.089,2.089,0,0,1,0-2.945,2.136,2.136,0,0,1,2.946,0L21.4,15.814a.694.694,0,1,1-.982.982l-1.963-1.963a.695.695,0,0,0-.983.982A.694.694,0,0,1,16.978,17Z" transform="translate(6.17 5.152)" fill="#051db9"/>
  <path id="Path_2119" data-name="Path 2119" d="M21.4,28.445a6.177,6.177,0,0,1-1.53-.192l-4.842-1.234A.688.688,0,0,1,14.6,26.7a2.493,2.493,0,0,1,.405-3,2.667,2.667,0,0,1,1.748-.707l-5.922-5.922a2.084,2.084,0,0,1,0-2.945,2.136,2.136,0,0,1,2.946,0l5.89,5.89a.694.694,0,1,1-.982.982l-5.891-5.89a.713.713,0,0,0-.982,0,.7.7,0,0,0,0,.982l7.363,7.365a.694.694,0,0,1-.71,1.15c-.592-.193-1.973-.43-2.481.078a1.055,1.055,0,0,0-.285,1.077l4.51,1.15a4.878,4.878,0,0,0,4.636-1.273l1.693-1.691a4.867,4.867,0,0,0,0-6.873l-2.946-2.945a.71.71,0,0,0-.982,0,.691.691,0,0,0,0,.982.694.694,0,0,1-.982.982,2.08,2.08,0,0,1,0-2.946,2.129,2.129,0,0,1,2.945,0l2.945,2.945a6.257,6.257,0,0,1,0,8.837l-1.693,1.691a6.26,6.26,0,0,1-4.428,1.83Z" transform="translate(3.972 4.876)" fill="#051db9"/>
  <path id="Path_2120" data-name="Path 2120" d="M14.579,27.993H3.471A3.475,3.475,0,0,1,0,24.522V6.471A3.475,3.475,0,0,1,3.471,3H6.248a.694.694,0,0,1,0,1.389H3.471A2.085,2.085,0,0,0,1.389,6.471V24.522A2.085,2.085,0,0,0,3.471,26.6H14.579a.694.694,0,0,1,0,1.389Z" transform="translate(0 1.166)" fill="#051db9"/>
  <path id="Path_2121" data-name="Path 2121" d="M14.414,8.331H6.083A2.085,2.085,0,0,1,4,6.248V3.471a.7.7,0,0,1,.694-.694H6.846a3.472,3.472,0,0,1,6.8,0H15.8a.7.7,0,0,1,.694.694V6.248A2.085,2.085,0,0,1,14.414,8.331ZM5.389,4.166V6.248a.7.7,0,0,0,.694.694h8.331a.7.7,0,0,0,.694-.694V4.166H13.025a.7.7,0,0,1-.694-.694,2.083,2.083,0,0,0-4.166,0,.7.7,0,0,1-.694.694Z" transform="translate(1.554)" fill="#051db9"/>
  <path id="Path_2122" data-name="Path 2122" d="M18.248,15.5a.7.7,0,0,1-.694-.694V6.471a2.085,2.085,0,0,0-2.083-2.083H12.694a.694.694,0,0,1,0-1.389h2.777a3.475,3.475,0,0,1,3.471,3.471V14.8A.7.7,0,0,1,18.248,15.5Z" transform="translate(4.662 1.166)" fill="#051db9"/>
  <path id="Path_2123" data-name="Path 2123" d="M17.579,9.389H3.694A.694.694,0,1,1,3.694,8H17.579a.694.694,0,0,1,0,1.389Z" transform="translate(1.166 3.108)" fill="#051db9"/>
  <path id="Path_2124" data-name="Path 2124" d="M17.579,12.389H3.694a.694.694,0,0,1,0-1.389H17.579a.694.694,0,0,1,0,1.389Z" transform="translate(1.166 4.274)" fill="#051db9"/>
  <path id="Path_2125" data-name="Path 2125" d="M10.637,15.389H3.694a.694.694,0,1,1,0-1.389h6.943a.694.694,0,1,1,0,1.389Z" transform="translate(1.166 5.439)" fill="#051db9"/>
</svg>
